autoload, "imutil.i", bin2d, dist, clip, eclat;
autoload, "imutil.i", poidev, gaussdev, spline2, bilinear;
autoload, "imutil.i", sedgesort, sedgemedian;
autoload, "imutil.i", cart2pol, rotate2, cpc;

